{
  "files": {
    "main.css": "/static/css/main.c0ddef31.chunk.css",
    "main.js": "/main.3f023a94787495595a64.bundle.js",
    "main.css.map": "/static/css/main.c0ddef31.chunk.css.map",
    "main.js.map": "/main.3f023a94787495595a64.bundle.js.map",
    "runtime~main.js": "/runtime~main.3f023a94787495595a64.bundle.js",
    "runtime~main.js.map": "/runtime~main.3f023a94787495595a64.bundle.js.map",
    "vendors~main.css": "/static/css/vendors~main.661b9127.chunk.css",
    "vendors~main.js": "/vendors~main.3f023a94787495595a64.bundle.js",
    "vendors~main.css.map": "/static/css/vendors~main.661b9127.chunk.css.map",
    "vendors~main.js.map": "/vendors~main.3f023a94787495595a64.bundle.js.map",
    "iframe.html": "/iframe.html",
    "precache-manifest.b449ed2a69af7ee0d5d5f45fec27632d.js": "/precache-manifest.b449ed2a69af7ee0d5d5f45fec27632d.js",
    "service-worker.js": "/service-worker.js",
    "vendors~main.3f023a94787495595a64.bundle.js.LICENSE.txt": "/vendors~main.3f023a94787495595a64.bundle.js.LICENSE.txt"
  },
  "entrypoints": [
    "runtime~main.3f023a94787495595a64.bundle.js",
    "static/css/vendors~main.661b9127.chunk.css",
    "vendors~main.3f023a94787495595a64.bundle.js",
    "static/css/main.c0ddef31.chunk.css",
    "main.3f023a94787495595a64.bundle.js"
  ]
}